0 12503
12504 25247
25248 38153
38154 51194
51195 64354
64355 77622
77623 90990
90991 104453
104454 118005
118006 131643
131644 145363
145364 159162
159163 173038
173039 186989
186990 201013
201014 215108
215109 229273
229274 243506
243507 257807
257808 272174
272175 286606
286607 301102
301103 315661
315662 330282
330283 344965
344966 359709
359710 374513
374514 389377
389378 404300
404301 419281
419282 434321
434322 449418
449419 464572
464573 479783
479784 495051
495052 510375
510376 525754
525755 541189
541190 556679
556680 572224
572225 587823
587824 603476
603477 619183
619184 634944
634945 650759
650760 666627
666628 682548
682549 698522
698523 714549
714550 730629
730630 746761
746762 762946
762947 779183
779184 795472
795473 811813
811814 828206
828207 844650
844651 861146
861147 877693
877694 894292
894293 910942
910943 927644
927645 944397
944398 961201
961202 978056
978057 994962
994963 1011919
1011920 1028927
1028928 1045986
1045987 1063096
1063097 1080256
1080257 1097467
1097468 1114729
1114730 1132042
1132043 1149405
1149406 1166819
1166820 1184284
1184285 1201799
1201800 1219365
1219366 1236982
1236983 1254649
1254650 1272367
1272368 1290136
1290137 1307955
1307956 1325825
1325826 1343746
1343747 1361717
1361718 1379739
1379740 1397812
1397813 1415936
1415937 1434110
1434111 1452335
1452336 1470611
1470612 1488938
1488939 1507316
1507317 1525745
1525746 1544225
1544226 1562756
1562757 1581338
1581339 1599972
1599973 1618657
1618658 1637393
1637394 1656181
1656182 1675020
1675021 1693910
1693911 1712852
1712853 1731845
1731846 1750890
1750891 1769987
1769988 1789136
1789137 1808337
1808338 1827590
1827591 1846895
1846896 1866252
1866253 1885661
1885662 1905122
1905123 1924635
1924636 1944201
1944202 1963819
1963820 1983490
1983491 2003214
2003215 2022990
2022991 2042819
2042820 2062701
2062702 2082636
2082637 2102624
2102625 2122666
2122667 2142761
2142762 2162910
2162911 2183112
2183113 2203368
2203369 2223678
2223679 2244041
2244042 2264459
2264460 2284931
2284932 2305457
2305458 2326037
2326038 2346672
2346673 2367361
2367362 2388105
2388106 2408904
2408905 2429758
2429759 2450667
2450668 2471631
2471632 2492651
2492652 2513726
2513727 2534857
2534858 2556043
2556044 2577285
2577286 2598583
2598584 2619937
2619938 2641348
2641349 2662815
2662816 2684339
2684340 2705919
2705920 2727556
2727557 2749250
2749251 2771001
2771002 2792810
2792811 2814676
2814677 2836600
2836601 2858582
2858583 2880622
2880623 2902720
2902721 2924876
2924877 2947090
2947091 2969363
2969364 2991695
2991696 3014086
3014087 3036536
3036537 3059045
3059046 3081613
3081614 3104241
3104242 3126929
3126930 3149677
3149678 3172485
3172486 3195353
3195354 3218282
3218283 3241271
3241272 3264321
3264322 3287432
3287433 3310604
3310605 3333838
3333839 3357133
3357134 3380490
3380491 3403909
3403910 3427390
3427391 3450934
3450935 3474540
3474541 3498209
3498210 3521941
3521942 3545736
3545737 3569595
3569596 3593518
3593519 3617504
3617505 3641554
3641555 3665669
3665670 3689848
3689849 3714092
3714093 3738401
3738402 3762775
3762776 3787214
3787215 3811719
3811720 3836290
3836291 3860927
3860928 3885630
3885631 3910400
3910401 3935237
3935238 3960141
3960142 3985112
3985113 4010150
4010151 4035256
4035257 4060430
4060431 4085672
4085673 4110983
4110984 4136363
4136364 4161811
4161812 4187329
4187330 4212916
4212917 4238573
4238574 4264300
4264301 4290097
4290098 4315965
4315966 4341904
4341905 4367914
4367915 4393995
4393996 4420148
4420149 4446373
4446374 4472670
4472671 4499040
4499041 4525482
4525483 4551998
4551999 4578587
4578588 4605250
4605251 4631986
4631987 4658797
4658798 4685682
4685683 4712642
4712643 4739677
4739678 4766788
4766789 4793975
4793976 4821238
4821239 4848577
4848578 4875993
4875994 4903486
4903487 4931057
4931058 4958705
4958706 4986431
4986432 5014236
5014237 5042119
5042120 5070082
5070083 5098124
5098125 5126246
5126247 5154448
5154449 5182730
5182731 5211093
5211094 5239537
5239538 5268063
5268064 5296671
5296672 5325361
5325362 5354134
5354135 5382990
5382991 5411929
5411930 5440952
5440953 5470059
5470060 5499250
5499251 5528526
5528527 5557888
5557889 5587335
5587336 5616868
5616869 5646488
5646489 5676195
5676196 5705989
5705990 5735871
5735872 5765841
5765842 5795900
5795901 5826048
5826049 5856285
5856286 5886612
5886613 5917029
5917030 5947537
5947538 5978136
5978137 6008827
6008828 6039610
6039611 6070486
6070487 6101455
6101456 6132517
6132518 6163673
6163674 6194923
6194924 6226268
6226269 6257709
6257710 6289245
6289246 6320878
6320879 6352608
6352609 6384435
6384436 6416360
6416361 6448383
6448384 6480505
6480506 6512726
6512727 6545047
6545048 6577469
6577470 6609992
6609993 6642616
6642617 6675342
6675343 6708171
6708172 6741103
6741104 6774139
6774140 6807279
6807280 6840524
6840525 6873874
6873875 6907330
6907331 6940893
6940894 6974563
6974564 7008341
7008342 7042227
7042228 7076222
7076223 7110327
7110328 7144542
7144543 7178868
7178869 7213305
7213306 7247854
7247855 7282516
7282517 7317292
7317293 7352182
7352183 7387187
7387188 7422307
7422308 7457543
7457544 7492896
7492897 7528366
7528367 7563954
7563955 7599661
7599662 7635488
7635489 7671435
7671436 7707503
7707504 7743693
7743694 7780006
7780007 7816442
7816443 7853002
7853003 7889687
7889688 7926497
7926498 7963434
7963435 8000498
8000499 8037690
8037691 8075011
8075012 8112462
8112463 8150043
8150044 8187755
8187756 8225599
8225600 8263576
8263577 8301687
8301688 8339933
8339934 8378314
8378315 8416832
8416833 8455487
8455488 8494281
8494282 8533214
8533215 8572287
8572288 8611501
8611502 8650857
8650858 8690356
8690357 8729999
8730000 8769787
8769788 8809721
8809722 8849802
8849803 8890031
8890032 8930409
8930410 8970937
8970938 9011616
9011617 9052448
9052449 9093433
9093434 9134573
9134574 9175868
9175869 9217319
9217320 9258929
9258930 9300697
9300698 9342625
9342626 9384715
9384716 9426967
9426968 9469383
9469384 9511964
9511965 9554711
9554712 9597625
9597626 9640708
9640709 9683961
9683962 9727385
9727386 9770982
9770983 9814752
9814753 9858698
9858699 9902820
9902821 9947120
9947121 9991600
9991601 10036261
10036262 10081104
10081105 10126131
10126132 10171343
10171344 10216741
10216742 10262328
10262329 10308104
10308105 10354072
10354073 10400233
10400234 10446588
10446589 10493139
10493140 10539888
10539889 10586836
10586837 10633986
10633987 10681338
10681339 10728895
10728896 10776658
10776659 10824629
10824630 10872810
10872811 10921203
10921204 10969810
10969811 11018632
11018633 11067672
11067673 11116931
11116932 11166411
11166412 11216115
11216116 11266044
11266045 11316200
11316201 11366586
11366587 11417204
11417205 11468056
11468057 11519144
11519145 11570470
11570471 11622037
11622038 11673846
11673847 11725900
11725901 11778202
11778203 11830754
11830755 11883558
11883559 11936617
11936618 11989933
11989934 12043509
12043510 12097348
12097349 12151452
12151453 12205824
12205825 12260466
12260467 12315382
12315383 12370574
12370575 12426045
12426046 12481798
12481799 12537836
12537837 12594162
12594163 12650779
12650780 12707690
12707691 12764898
12764899 12822407
12822408 12880219
12880220 12938339
12938340 12996769
12996770 13055514
13055515 13114576
13114577 13173960
13173961 13233668
13233669 13293705
13293706 13354074
13354075 13414779
13414780 13475825
13475826 13537215
13537216 13598953
13598954 13661044
13661045 13723492
13723493 13786301
13786302 13849475
13849476 13913019
13913020 13976938
13976939 14041236
14041237 14105918
14105919 14170990
14170991 14236455
14236456 14302319
14302320 14368588
14368589 14435266
14435267 14502359
14502360 14569873
14569874 14637813
14637814 14706185
14706186 14774995
14774996 14844249
14844250 14913953
14913954 14984114
14984115 15054737
15054738 15125830
15125831 15197399
15197400 15269451
15269452 15341993
15341994 15415032
15415033 15488576
15488577 15562633
15562634 15637210
15637211 15712315
15712316 15787956
15787957 15864142
15864143 15940881
15940882 16018182
16018183 16096054
16096055 16174506
16174507 16253547
16253548 16333188
16333189 16413438
16413439 16494308
16494309 16575808
16575809 16657949
16657950 16740742
16740743 16824199
16824200 16908331
16908332 16993151
16993152 17078670
17078671 17164902
17164903 17251860
17251861 17339557
17339558 17428008
17428009 17517227
17517228 17607228
17607229 17698027
17698028 17789641
17789642 17882084
17882085 17975375
17975376 18069530
18069531 18164567
18164568 18260505
18260506 18357363
18357364 18455161
18455162 18553920
18553921 18653661
18653662 18754405
18754406 18856177
18856178 18958999
18959000 19062896
19062897 19167893
19167894 19274017
19274018 19381296
19381297 19489757
19489758 19599432
19599433 19710350
19710351 19822544
19822545 19936047
19936048 20050895
20050896 20167124
20167125 20284772
20284773 20403879
20403880 20524486
20524487 20646637
20646638 20770378
20770379 20895756
20895757 21022822
21022823 21151628
21151629 21282229
21282230 21414683
21414684 21549052
21549053 21685400
21685401 21823795
21823796 21964309
21964310 22107016
22107017 22251998
22251999 22399340
22399341 22549131
22549132 22701468
22701469 22856452
22856453 23014191
23014192 23174803
23174804 23338409
23338410 23505142
23505143 23675146
23675147 23848571
23848572 24025583
24025584 24206358
24206359 24391086
24391087 24579977
24579978 24773255
24773256 24971165
24971166 25173974
25173975 25381978
25381979 25595497
25595498 25814886
25814887 26040540
26040541 26272895
26272896 26512438
26512439 26759716
26759717 27015345
27015346 27280023
27280024 27554546
27554547 27839827
27839828 28136920
28136921 28447059
28447060 28771691
28771692 29112540
29112541 29471682
29471683 29851652
29851653 30255591
30255592 30687475
30687476 31152445
31152446 31657338
31657339 32211560
32211561 32828646
32828647 33529226
33529227 34347436
34347437 35347172
35347173 36676248
36676249 44034420
